-- Merging decision tree log ---
manifest
ADDED from /Users/Vortex/Documents/Development/Javascript Presentation/Tunifye/tunifye/platforms/android/app/src/main/AndroidManifest.xml:2:1-19:12
	package
		ADDED from /Users/Vortex/Documents/Development/Javascript Presentation/Tunifye/tunifye/platforms/android/app/src/main/AndroidManifest.xml:3:64-97
		INJECTED from /Users/Vortex/Documents/Development/Javascript Presentation/Tunifye/tunifye/platforms/android/app/src/main/AndroidManifest.xml
		INJECTED from /Users/Vortex/Documents/Development/Javascript Presentation/Tunifye/tunifye/platforms/android/app/src/F0/AndroidManifest.xml
	android:versionName
		ADDED from /Users/Vortex/Documents/Development/Javascript Presentation/Tunifye/tunifye/platforms/android/app/src/main/AndroidManifest.xml:3:122-147
		INJECTED from /Users/Vortex/Documents/Development/Javascript Presentation/Tunifye/tunifye/platforms/android/app/src/main/AndroidManifest.xml
		ADDED from /Users/Vortex/Documents/Development/Javascript Presentation/Tunifye/tunifye/platforms/android/app/src/main/AndroidManifest.xml:3:122-147
		INJECTED from /Users/Vortex/Documents/Development/Javascript Presentation/Tunifye/tunifye/platforms/android/app/src/F0/AndroidManifest.xml
	android:versionCode
		ADDED from /Users/Vortex/Documents/Development/Javascript Presentation/Tunifye/tunifye/platforms/android/app/src/main/AndroidManifest.xml:3:98-121
		INJECTED from /Users/Vortex/Documents/Development/Javascript Presentation/Tunifye/tunifye/platforms/android/app/src/main/AndroidManifest.xml
		ADDED from /Users/Vortex/Documents/Development/Javascript Presentation/Tunifye/tunifye/platforms/android/app/src/main/AndroidManifest.xml:3:98-121
		INJECTED from /Users/Vortex/Documents/Development/Javascript Presentation/Tunifye/tunifye/platforms/android/app/src/F0/AndroidManifest.xml
	xmlns:android
		ADDED from /Users/Vortex/Documents/Development/Javascript Presentation/Tunifye/tunifye/platforms/android/app/src/main/AndroidManifest.xml:3:5-63
supports-screens
ADDED from /Users/Vortex/Documents/Development/Javascript Presentation/Tunifye/tunifye/platforms/android/app/src/main/AndroidManifest.xml:4:5-139
	android:largeScreens
		ADDED from /Users/Vortex/Documents/Development/Javascript Presentation/Tunifye/tunifye/platforms/android/app/src/main/AndroidManifest.xml:4:80-107
	android:smallScreens
		ADDED from /Users/Vortex/Documents/Development/Javascript Presentation/Tunifye/tunifye/platforms/android/app/src/main/AndroidManifest.xml:4:23-50
	android:normalScreens
		ADDED from /Users/Vortex/Documents/Development/Javascript Presentation/Tunifye/tunifye/platforms/android/app/src/main/AndroidManifest.xml:4:51-79
	android:xlargeScreens
		ADDED from /Users/Vortex/Documents/Development/Javascript Presentation/Tunifye/tunifye/platforms/android/app/src/main/AndroidManifest.xml:4:108-136
uses-sdk
ADDED from /Users/Vortex/Documents/Development/Javascript Presentation/Tunifye/tunifye/platforms/android/app/src/main/AndroidManifest.xml:5:5-74
MERGED from [com.google.android.gms:play-services-ads:12.0.0] /Users/Vortex/.android/build-cache/5fac75b6db475314a9ebba5e1d2023bac852e1d6/output/AndroidManifest.xml:21:5-23:62
MERGED from [com.google.android.gms:play-services-ads-lite:12.0.0] /Users/Vortex/.android/build-cache/a1e7ff713ba7aa8723e5044fa4d06cd56adb8123/output/AndroidManifest.xml:20:5-44
MERGED from [com.google.android.gms:play-services-gass:12.0.0] /Users/Vortex/.android/build-cache/174446ed90202b137a9620a1c93b0f4b07493972/output/AndroidManifest.xml:5:5-44
MERGED from [com.google.android.gms:play-services-basement:12.0.0] /Users/Vortex/.android/build-cache/f05ea82bb8199914c9787fb54b753ce4c085db8d/output/AndroidManifest.xml:20:5-44
MERGED from [com.android.support:cardview-v7:26.0.0-alpha1] /Users/Vortex/.android/build-cache/9585adfe8f085147403ca53a5f052860991bb076/output/AndroidManifest.xml:20:5-44
MERGED from [:nativescript-optimized:] /Users/Vortex/.android/build-cache/6a1ac848dfc186cc220f445be1b518240cf540a9/output/AndroidManifest.xml:7:5-9:41
MERGED from [:widgets-release:] /Users/Vortex/.android/build-cache/32db95499efff2cb59ffed6ccc8e0f77de479aab/output/AndroidManifest.xml:7:5-9:41
MERGED from [com.android.support:design:26.0.0-alpha1] /Users/Vortex/.android/build-cache/720c9e0e1744804c347ca6d44442aae9f2b2424f/output/AndroidManifest.xml:21:5-23:62
MERGED from [com.android.support:appcompat-v7:26.0.0-alpha1] /Users/Vortex/.android/build-cache/a373b8b33391e1af9c0387988e9ab01e8b79b9b7/output/AndroidManifest.xml:21:5-23:78
MERGED from [com.android.support:animated-vector-drawable:26.0.0-alpha1] /Users/Vortex/.android/build-cache/76e2d26c9399f201d29a9ebea861361ade6dfcdf/output/AndroidManifest.xml:20:5-44
MERGED from [com.android.support:support-vector-drawable:26.0.0-alpha1] /Users/Vortex/.android/build-cache/6d9720145234d13bd77d2c22d18bd4603b0aaa9f/output/AndroidManifest.xml:20:5-44
MERGED from [com.android.support:recyclerview-v7:26.0.0-alpha1] /Users/Vortex/.android/build-cache/117a5dd7b55c3035a7f9652f5b0d605824aad102/output/AndroidManifest.xml:20:5-44
MERGED from [com.android.support:transition:26.0.0-alpha1] /Users/Vortex/.android/build-cache/9dc3832d86b97e2d8eba383e3fe5b8d4ea9515e4/output/AndroidManifest.xml:20:5-44
MERGED from [com.android.support:support-v4:26.1.0] /Users/Vortex/.android/build-cache/20185f8a414422efe9de9eade298af3959e6545c/output/AndroidManifest.xml:21:5-23:54
MERGED from [com.android.support:support-media-compat:26.1.0] /Users/Vortex/.android/build-cache/57a50fca330efc326967ca227f2981b97657aef3/output/AndroidManifest.xml:21:5-23:63
MERGED from [com.android.support:support-fragment:26.1.0] /Users/Vortex/.android/build-cache/295fb9ae2ba8d65464ea24c74aa892b40b4a7643/output/AndroidManifest.xml:21:5-23:60
MERGED from [com.android.support:support-core-ui:26.1.0] /Users/Vortex/.android/build-cache/d37ff08a4744800e26ee7dbd013e77417bb89f83/output/AndroidManifest.xml:21:5-23:58
MERGED from [com.android.support:support-core-utils:26.1.0] /Users/Vortex/.android/build-cache/569a8f523a915205efa8b3af16dc79db7db063b3/output/AndroidManifest.xml:21:5-23:61
MERGED from [com.android.support:support-compat:26.1.0] /Users/Vortex/.android/build-cache/fa4e44bf6d0d0632439cab2a88bb0ede1bd426b0/output/AndroidManifest.xml:21:5-23:58
MERGED from [android.arch.lifecycle:runtime:1.0.0] /Users/Vortex/.android/build-cache/41da928330952bad39a2ef04ff0c4064aa334315/output/AndroidManifest.xml:20:5-22:41
	tools:overrideLibrary
		ADDED from [com.google.android.gms:play-services-ads:12.0.0] /Users/Vortex/.android/build-cache/5fac75b6db475314a9ebba5e1d2023bac852e1d6/output/AndroidManifest.xml:23:9-59
	android:targetSdkVersion
		ADDED from /Users/Vortex/Documents/Development/Javascript Presentation/Tunifye/tunifye/platforms/android/app/src/main/AndroidManifest.xml:5:42-71
		INJECTED from /Users/Vortex/Documents/Development/Javascript Presentation/Tunifye/tunifye/platforms/android/app/src/main/AndroidManifest.xml
		INJECTED from /Users/Vortex/Documents/Development/Javascript Presentation/Tunifye/tunifye/platforms/android/app/src/F0/AndroidManifest.xml
	android:minSdkVersion
		ADDED from /Users/Vortex/Documents/Development/Javascript Presentation/Tunifye/tunifye/platforms/android/app/src/main/AndroidManifest.xml:5:15-41
		INJECTED from /Users/Vortex/Documents/Development/Javascript Presentation/Tunifye/tunifye/platforms/android/app/src/main/AndroidManifest.xml
		INJECTED from /Users/Vortex/Documents/Development/Javascript Presentation/Tunifye/tunifye/platforms/android/app/src/F0/AndroidManifest.xml
uses-permission#android.permission.INTERNET
ADDED from /Users/Vortex/Documents/Development/Javascript Presentation/Tunifye/tunifye/platforms/android/app/src/main/AndroidManifest.xml:6:5-67
MERGED from [com.google.android.gms:play-services-ads-lite:12.0.0] /Users/Vortex/.android/build-cache/a1e7ff713ba7aa8723e5044fa4d06cd56adb8123/output/AndroidManifest.xml:23:5-67
	android:name
		ADDED from /Users/Vortex/Documents/Development/Javascript Presentation/Tunifye/tunifye/platforms/android/app/src/main/AndroidManifest.xml:6:22-64
uses-permission#android.permission.READ_EXTERNAL_STORAGE
ADDED from /Users/Vortex/Documents/Development/Javascript Presentation/Tunifye/tunifye/platforms/android/app/src/main/AndroidManifest.xml:7:5-80
	android:name
		ADDED from /Users/Vortex/Documents/Development/Javascript Presentation/Tunifye/tunifye/platforms/android/app/src/main/AndroidManifest.xml:7:22-77
uses-permission#android.permission.WRITE_EXTERNAL_STORAGE
ADDED from /Users/Vortex/Documents/Development/Javascript Presentation/Tunifye/tunifye/platforms/android/app/src/main/AndroidManifest.xml:8:5-81
	android:name
		ADDED from /Users/Vortex/Documents/Development/Javascript Presentation/Tunifye/tunifye/platforms/android/app/src/main/AndroidManifest.xml:8:22-78
application
ADDED from /Users/Vortex/Documents/Development/Javascript Presentation/Tunifye/tunifye/platforms/android/app/src/main/AndroidManifest.xml:9:5-18:19
MERGED from /Users/Vortex/Documents/Development/Javascript Presentation/Tunifye/tunifye/platforms/android/app/src/main/AndroidManifest.xml:9:5-18:19
MERGED from [com.google.android.gms:play-services-ads-lite:12.0.0] /Users/Vortex/.android/build-cache/a1e7ff713ba7aa8723e5044fa4d06cd56adb8123/output/AndroidManifest.xml:26:5-34:19
MERGED from [com.google.android.gms:play-services-ads-lite-license:12.0.0] /Users/Vortex/.android/build-cache/999fb06250c15c5159812c1cb754eb8abf4851e3/output/AndroidManifest.xml:5:5-6:19
MERGED from [com.google.android.gms:play-services-gass:12.0.0] /Users/Vortex/.android/build-cache/174446ed90202b137a9620a1c93b0f4b07493972/output/AndroidManifest.xml:7:5-20
MERGED from [com.google.android.gms:play-services-basement:12.0.0] /Users/Vortex/.android/build-cache/f05ea82bb8199914c9787fb54b753ce4c085db8d/output/AndroidManifest.xml:22:5-26:19
MERGED from [com.google.android.gms:play-services-basement-license:12.0.0] /Users/Vortex/.android/build-cache/bf467bac5d28f478d0c90eaf446e9ed6fa0b5656/output/AndroidManifest.xml:5:5-6:19
MERGED from [com.google.android.gms:play-services-gass-license:12.0.0] /Users/Vortex/.android/build-cache/4f94ebbe875f47d9283f58aab097ea433fea0e33/output/AndroidManifest.xml:5:5-6:19
MERGED from [com.google.android.gms:play-services-ads-license:12.0.0] /Users/Vortex/.android/build-cache/ac585540f361b351d185108b59ac0d21b18e7721/output/AndroidManifest.xml:5:5-6:19
MERGED from [com.android.support:cardview-v7:26.0.0-alpha1] /Users/Vortex/.android/build-cache/9585adfe8f085147403ca53a5f052860991bb076/output/AndroidManifest.xml:26:5-20
MERGED from [:widgets-release:] /Users/Vortex/.android/build-cache/32db95499efff2cb59ffed6ccc8e0f77de479aab/output/AndroidManifest.xml:11:5-12:19
MERGED from [com.android.support:design:26.0.0-alpha1] /Users/Vortex/.android/build-cache/720c9e0e1744804c347ca6d44442aae9f2b2424f/output/AndroidManifest.xml:29:5-20
MERGED from [com.android.support:appcompat-v7:26.0.0-alpha1] /Users/Vortex/.android/build-cache/a373b8b33391e1af9c0387988e9ab01e8b79b9b7/output/AndroidManifest.xml:29:5-20
MERGED from [com.android.support:animated-vector-drawable:26.0.0-alpha1] /Users/Vortex/.android/build-cache/76e2d26c9399f201d29a9ebea861361ade6dfcdf/output/AndroidManifest.xml:26:5-20
MERGED from [com.android.support:support-vector-drawable:26.0.0-alpha1] /Users/Vortex/.android/build-cache/6d9720145234d13bd77d2c22d18bd4603b0aaa9f/output/AndroidManifest.xml:26:5-20
MERGED from [com.android.support:transition:26.0.0-alpha1] /Users/Vortex/.android/build-cache/9dc3832d86b97e2d8eba383e3fe5b8d4ea9515e4/output/AndroidManifest.xml:26:5-20
MERGED from [com.android.support:support-v4:26.1.0] /Users/Vortex/.android/build-cache/20185f8a414422efe9de9eade298af3959e6545c/output/AndroidManifest.xml:25:5-29:19
MERGED from [com.android.support:support-media-compat:26.1.0] /Users/Vortex/.android/build-cache/57a50fca330efc326967ca227f2981b97657aef3/output/AndroidManifest.xml:25:5-29:19
MERGED from [com.android.support:support-fragment:26.1.0] /Users/Vortex/.android/build-cache/295fb9ae2ba8d65464ea24c74aa892b40b4a7643/output/AndroidManifest.xml:25:5-29:19
MERGED from [com.android.support:support-core-ui:26.1.0] /Users/Vortex/.android/build-cache/d37ff08a4744800e26ee7dbd013e77417bb89f83/output/AndroidManifest.xml:25:5-29:19
MERGED from [com.android.support:support-core-utils:26.1.0] /Users/Vortex/.android/build-cache/569a8f523a915205efa8b3af16dc79db7db063b3/output/AndroidManifest.xml:25:5-29:19
MERGED from [com.android.support:support-compat:26.1.0] /Users/Vortex/.android/build-cache/fa4e44bf6d0d0632439cab2a88bb0ede1bd426b0/output/AndroidManifest.xml:25:5-29:19
MERGED from [android.arch.lifecycle:runtime:1.0.0] /Users/Vortex/.android/build-cache/41da928330952bad39a2ef04ff0c4064aa334315/output/AndroidManifest.xml:24:5-28:19
	android:label
		ADDED from /Users/Vortex/Documents/Development/Javascript Presentation/Tunifye/tunifye/platforms/android/app/src/main/AndroidManifest.xml:9:122-154
		ADDED from /Users/Vortex/Documents/Development/Javascript Presentation/Tunifye/tunifye/platforms/android/app/src/main/AndroidManifest.xml:9:122-154
	android:debuggable
		ADDED from /Users/Vortex/Documents/Development/Javascript Presentation/Tunifye/tunifye/platforms/android/app/src/main/AndroidManifest.xml:9:187-213
		ADDED from /Users/Vortex/Documents/Development/Javascript Presentation/Tunifye/tunifye/platforms/android/app/src/main/AndroidManifest.xml:9:187-213
	android:allowBackup
		ADDED from /Users/Vortex/Documents/Development/Javascript Presentation/Tunifye/tunifye/platforms/android/app/src/main/AndroidManifest.xml:9:65-91
		ADDED from /Users/Vortex/Documents/Development/Javascript Presentation/Tunifye/tunifye/platforms/android/app/src/main/AndroidManifest.xml:9:65-91
	android:icon
		ADDED from /Users/Vortex/Documents/Development/Javascript Presentation/Tunifye/tunifye/platforms/android/app/src/main/AndroidManifest.xml:9:92-121
		ADDED from /Users/Vortex/Documents/Development/Javascript Presentation/Tunifye/tunifye/platforms/android/app/src/main/AndroidManifest.xml:9:92-121
	android:theme
		ADDED from /Users/Vortex/Documents/Development/Javascript Presentation/Tunifye/tunifye/platforms/android/app/src/main/AndroidManifest.xml:9:155-186
		ADDED from /Users/Vortex/Documents/Development/Javascript Presentation/Tunifye/tunifye/platforms/android/app/src/main/AndroidManifest.xml:9:155-186
	android:name
		ADDED from /Users/Vortex/Documents/Development/Javascript Presentation/Tunifye/tunifye/platforms/android/app/src/main/AndroidManifest.xml:9:18-64
		ADDED from /Users/Vortex/Documents/Development/Javascript Presentation/Tunifye/tunifye/platforms/android/app/src/main/AndroidManifest.xml:9:18-64
activity#com.tns.NativeScriptActivity
ADDED from /Users/Vortex/Documents/Development/Javascript Presentation/Tunifye/tunifye/platforms/android/app/src/main/AndroidManifest.xml:10:9-16:20
	android:screenOrientation
		ADDED from /Users/Vortex/Documents/Development/Javascript Presentation/Tunifye/tunifye/platforms/android/app/src/main/AndroidManifest.xml:10:212-252
	android:label
		ADDED from /Users/Vortex/Documents/Development/Javascript Presentation/Tunifye/tunifye/platforms/android/app/src/main/AndroidManifest.xml:10:63-108
	android:configChanges
		ADDED from /Users/Vortex/Documents/Development/Javascript Presentation/Tunifye/tunifye/platforms/android/app/src/main/AndroidManifest.xml:10:109-170
	android:theme
		ADDED from /Users/Vortex/Documents/Development/Javascript Presentation/Tunifye/tunifye/platforms/android/app/src/main/AndroidManifest.xml:10:171-211
	android:name
		ADDED from /Users/Vortex/Documents/Development/Javascript Presentation/Tunifye/tunifye/platforms/android/app/src/main/AndroidManifest.xml:10:19-62
meta-data#SET_THEME_ON_LAUNCH
ADDED from /Users/Vortex/Documents/Development/Javascript Presentation/Tunifye/tunifye/platforms/android/app/src/main/AndroidManifest.xml:11:13-96
	android:resource
		ADDED from /Users/Vortex/Documents/Development/Javascript Presentation/Tunifye/tunifye/platforms/android/app/src/main/AndroidManifest.xml:11:59-93
	android:name
		ADDED from /Users/Vortex/Documents/Development/Javascript Presentation/Tunifye/tunifye/platforms/android/app/src/main/AndroidManifest.xml:11:24-58
intent-filter#android.intent.action.MAIN+android.intent.category.LAUNCHER
ADDED from /Users/Vortex/Documents/Development/Javascript Presentation/Tunifye/tunifye/platforms/android/app/src/main/AndroidManifest.xml:12:13-15:29
action#android.intent.action.MAIN
ADDED from /Users/Vortex/Documents/Development/Javascript Presentation/Tunifye/tunifye/platforms/android/app/src/main/AndroidManifest.xml:13:17-69
	android:name
		ADDED from /Users/Vortex/Documents/Development/Javascript Presentation/Tunifye/tunifye/platforms/android/app/src/main/AndroidManifest.xml:13:25-66
category#android.intent.category.LAUNCHER
ADDED from /Users/Vortex/Documents/Development/Javascript Presentation/Tunifye/tunifye/platforms/android/app/src/main/AndroidManifest.xml:14:17-77
	android:name
		ADDED from /Users/Vortex/Documents/Development/Javascript Presentation/Tunifye/tunifye/platforms/android/app/src/main/AndroidManifest.xml:14:27-74
activity#com.tns.ErrorReportActivity
ADDED from /Users/Vortex/Documents/Development/Javascript Presentation/Tunifye/tunifye/platforms/android/app/src/main/AndroidManifest.xml:17:9-64
	android:name
		ADDED from /Users/Vortex/Documents/Development/Javascript Presentation/Tunifye/tunifye/platforms/android/app/src/main/AndroidManifest.xml:17:19-61
uses-permission#android.permission.RECORD_AUDIO
ADDED from /Users/Vortex/Documents/Development/Javascript Presentation/Tunifye/tunifye/platforms/android/app/src/F1/AndroidManifest.xml:4:5-70
	android:name
		ADDED from /Users/Vortex/Documents/Development/Javascript Presentation/Tunifye/tunifye/platforms/android/app/src/F1/AndroidManifest.xml:4:22-68
uses-permission#android.permission.ACCESS_NETWORK_STATE
MERGED from [com.google.android.gms:play-services-ads-lite:12.0.0] /Users/Vortex/.android/build-cache/a1e7ff713ba7aa8723e5044fa4d06cd56adb8123/output/AndroidManifest.xml:24:5-79
activity#com.google.android.gms.ads.AdActivity
MERGED from [com.google.android.gms:play-services-ads-lite:12.0.0] /Users/Vortex/.android/build-cache/a1e7ff713ba7aa8723e5044fa4d06cd56adb8123/output/AndroidManifest.xml:29:9-33:64
	android:exported
		ADDED from [com.google.android.gms:play-services-ads-lite:12.0.0] /Users/Vortex/.android/build-cache/a1e7ff713ba7aa8723e5044fa4d06cd56adb8123/output/AndroidManifest.xml:32:13-37
uses-permission#android.permission.READ_PHONE_STATE
IMPLIED from /Users/Vortex/Documents/Development/Javascript Presentation/Tunifye/tunifye/platforms/android/app/src/F0/AndroidManifest.xml:2:1-13:12 reason: com.google.android.gms.license has a targetSdkVersion < 4
meta-data#com.google.android.gms.version
ADDED from [com.google.android.gms:play-services-basement:12.0.0] /Users/Vortex/.android/build-cache/f05ea82bb8199914c9787fb54b753ce4c085db8d/output/AndroidManifest.xml:23:9-25:69
	android:value
		ADDED from [com.google.android.gms:play-services-basement:12.0.0] /Users/Vortex/.android/build-cache/f05ea82bb8199914c9787fb54b753ce4c085db8d/output/AndroidManifest.xml:25:13-66
	android:name
		ADDED from [com.google.android.gms:play-services-basement:12.0.0] /Users/Vortex/.android/build-cache/f05ea82bb8199914c9787fb54b753ce4c085db8d/output/AndroidManifest.xml:24:13-58
meta-data#android.support.VERSION
ADDED from [com.android.support:cardview-v7:26.0.0-alpha1] /Users/Vortex/.android/build-cache/9585adfe8f085147403ca53a5f052860991bb076/output/AndroidManifest.xml:22:5-24:41
MERGED from [com.android.support:design:26.0.0-alpha1] /Users/Vortex/.android/build-cache/720c9e0e1744804c347ca6d44442aae9f2b2424f/output/AndroidManifest.xml:25:5-27:41
MERGED from [com.android.support:appcompat-v7:26.0.0-alpha1] /Users/Vortex/.android/build-cache/a373b8b33391e1af9c0387988e9ab01e8b79b9b7/output/AndroidManifest.xml:25:5-27:41
MERGED from [com.android.support:animated-vector-drawable:26.0.0-alpha1] /Users/Vortex/.android/build-cache/76e2d26c9399f201d29a9ebea861361ade6dfcdf/output/AndroidManifest.xml:22:5-24:41
MERGED from [com.android.support:support-vector-drawable:26.0.0-alpha1] /Users/Vortex/.android/build-cache/6d9720145234d13bd77d2c22d18bd4603b0aaa9f/output/AndroidManifest.xml:22:5-24:41
MERGED from [com.android.support:recyclerview-v7:26.0.0-alpha1] /Users/Vortex/.android/build-cache/117a5dd7b55c3035a7f9652f5b0d605824aad102/output/AndroidManifest.xml:22:5-24:41
MERGED from [com.android.support:transition:26.0.0-alpha1] /Users/Vortex/.android/build-cache/9dc3832d86b97e2d8eba383e3fe5b8d4ea9515e4/output/AndroidManifest.xml:22:5-24:41
MERGED from [com.android.support:support-media-compat:26.1.0] /Users/Vortex/.android/build-cache/57a50fca330efc326967ca227f2981b97657aef3/output/AndroidManifest.xml:26:9-28:38
MERGED from [com.android.support:support-fragment:26.1.0] /Users/Vortex/.android/build-cache/295fb9ae2ba8d65464ea24c74aa892b40b4a7643/output/AndroidManifest.xml:26:9-28:38
MERGED from [com.android.support:support-core-ui:26.1.0] /Users/Vortex/.android/build-cache/d37ff08a4744800e26ee7dbd013e77417bb89f83/output/AndroidManifest.xml:26:9-28:38
MERGED from [com.android.support:support-core-utils:26.1.0] /Users/Vortex/.android/build-cache/569a8f523a915205efa8b3af16dc79db7db063b3/output/AndroidManifest.xml:26:9-28:38
MERGED from [com.android.support:support-compat:26.1.0] /Users/Vortex/.android/build-cache/fa4e44bf6d0d0632439cab2a88bb0ede1bd426b0/output/AndroidManifest.xml:26:9-28:38
	android:value
		ADDED from [com.android.support:cardview-v7:26.0.0-alpha1] /Users/Vortex/.android/build-cache/9585adfe8f085147403ca53a5f052860991bb076/output/AndroidManifest.xml:24:9-38
	android:name
		ADDED from [com.android.support:cardview-v7:26.0.0-alpha1] /Users/Vortex/.android/build-cache/9585adfe8f085147403ca53a5f052860991bb076/output/AndroidManifest.xml:23:9-47
meta-data#android.arch.lifecycle.VERSION
ADDED from [android.arch.lifecycle:runtime:1.0.0] /Users/Vortex/.android/build-cache/41da928330952bad39a2ef04ff0c4064aa334315/output/AndroidManifest.xml:25:9-27:47
	android:value
		ADDED from [android.arch.lifecycle:runtime:1.0.0] /Users/Vortex/.android/build-cache/41da928330952bad39a2ef04ff0c4064aa334315/output/AndroidManifest.xml:27:13-44
	android:name
		ADDED from [android.arch.lifecycle:runtime:1.0.0] /Users/Vortex/.android/build-cache/41da928330952bad39a2ef04ff0c4064aa334315/output/AndroidManifest.xml:26:13-58
